{
  "version": 2,
  "cmakeMinimumRequired": {
    "major": 3,
    "minor": 16,
    "patch": 0
  },
  "configurePresets": [
    {
      "name": "cmake-pedantic",
      "hidden": true,
      "warnings": {
        "dev": true,
        "deprecated": true,
        "uninitialized": true,
        "unusedCli": true,
        "systemVars": false
      },
      "errors": {
        "dev": true,
        "deprecated": true
      }
    },
    {
      "name": "dev-mode",
      "hidden": true,
      "inherits": "cmake-pedantic",
      "cacheVariables": {
        "pytango_DEVELOPER_MODE": "ON",
        "Tango_USE_PKG_CONFIG": "OFF"
      }
    },
    {
      "name": "cppcheck",
      "hidden": true,
      "cacheVariables": {
        "CMAKE_CXX_CPPCHECK": "cppcheck;--inline-suppr"
      }
    },
    {
      "name": "clang-tidy",
      "hidden": true,
      "cacheVariables": {
        "CMAKE_CXX_CLANG_TIDY": "clang-tidy;--header-filter=^${sourceDir}/"
      }
    },
    {
      "name": "flags-unix",
      "hidden": true,
      "cacheVariables": {
        "CMAKE_CXX_FLAGS": "-Wall -Wextra -Wpedantic -Wconversion -Wsign-conversion -Wcast-qual -Wformat=2 -Wundef -Werror=float-equal -Wshadow -Wcast-align -Wunused -Wnull-dereference -Wdouble-promotion -Wimplicit-fallthrough -Wextra-semi -Woverloaded-virtual -Wnon-virtual-dtor -Wold-style-cast"
      }
    },
    {
      "name": "flags-windows",
      "description": "Note that all the flags after /W4 are required for MSVC to conform to the language standard",
      "hidden": true,
      "cacheVariables": {
        "CMAKE_CXX_FLAGS": "/utf-8 /w14165 /w44242 /w44254 /w44263 /w34265 /w34287 /w44296 /w44365 /w44388 /w44464 /w14545 /w14546 /w14547 /w14549 /w14555 /w34619 /w34640 /w24826 /w14905 /w14906 /w14928 /w45038 /W4 /permissive- /volatile:iso /Zc:preprocessor /Zc:__cplusplus /Zc:externConstexpr /Zc:throwingNew /EHsc"
      }
    },
    {
      "name": "ci-unix",
      "generator": "Ninja",
      "hidden": true,
      "inherits": ["flags-unix"],
      "cacheVariables": {
        "CMAKE_BUILD_TYPE": "Release"
      }
    },
    {
      "name": "ci-win64",
      "inherits": ["flags-windows"],
      "generator": "Visual Studio 16 2019",
      "architecture": "x64",
      "cacheVariables": {
        "Boost_USE_STATIC_LIBS": "OFF"
      },
      "hidden": true
    },
    {
      "name": "ci-sanitize",
      "binaryDir": "${sourceDir}/cmakebuild/sanitize",
      "inherits": ["ci-unix", "dev-mode"],
      "cacheVariables": {
        "CMAKE_BUILD_TYPE": "Sanitize",
        "CMAKE_CXX_FLAGS_SANITIZE": "-O2 -g -fsanitize=address,undefined -fno-omit-frame-pointer -fno-common"
      }
    },
    {
      "name": "ci-build",
      "binaryDir": "${sourceDir}/cmakebuild",
      "hidden": true
    },
    {
      "name": "ci-macOS",
      "inherits": ["ci-build", "ci-unix", "dev-mode"]
    },
    {
      "name": "ci-Linux",
      "inherits": ["ci-build", "ci-unix", "clang-tidy", "cppcheck", "dev-mode"]
    },
    {
      "name": "ci-Linux-quiet",
      "inherits": ["ci-build", "ci-unix", "dev-mode"]
    },
    {
      "name": "ci-Windows",
      "inherits": ["ci-build", "ci-win64", "dev-mode"]
    }
  ]
}
